<?xml version="1.0" encoding="UTF-8" standalone="no"?>
<!-- Created with Inkscape (http://www.inkscape.org/) -->

<svg
   xmlns:osb="http://www.openswatchbook.org/uri/2009/osb"
   xmlns:dc="http://purl.org/dc/elements/1.1/"
   xmlns:cc="http://creativecommons.org/ns#"
   xmlns:rdf="http://www.w3.org/1999/02/22-rdf-syntax-ns#"
   xmlns:svg="http://www.w3.org/2000/svg"
   xmlns="http://www.w3.org/2000/svg"
   xmlns:sodipodi="http://sodipodi.sourceforge.net/DTD/sodipodi-0.dtd"
   xmlns:inkscape="http://www.inkscape.org/namespaces/inkscape"
   width="210mm"
   height="297mm"
   viewBox="0 0 744.09448819 1052.3622047"
   id="svg2"
   version="1.1"
   inkscape:version="0.91 r13725"
   sodipodi:docname="character1.svg">
  <defs
     id="defs4">
    <marker
       inkscape:stockid="Arrow1Lstart"
       orient="auto"
       refY="0.0"
       refX="0.0"
       id="Arrow1Lstart"
       style="overflow:visible"
       inkscape:isstock="true">
      <path
         id="path6325"
         d="M 0.0,0.0 L 5.0,-5.0 L -12.5,0.0 L 5.0,5.0 L 0.0,0.0 z "
         style="fill-rule:evenodd;stroke:#000000;stroke-width:1.0pt"
         transform="scale(0.8) translate(12.5,0)" />
    </marker>
    <linearGradient
       id="linearGradient5906"
       osb:paint="solid">
      <stop
         style="stop-color:#000000;stop-opacity:1;"
         offset="0"
         id="stop5908" />
    </linearGradient>
  </defs>
  <sodipodi:namedview
     id="base"
     pagecolor="#ffffff"
     bordercolor="#666666"
     borderopacity="1.0"
     inkscape:pageopacity="0.0"
     inkscape:pageshadow="2"
     inkscape:zoom="7.9195959"
     inkscape:cx="162.10124"
     inkscape:cy="906.75569"
     inkscape:document-units="px"
     inkscape:current-layer="layer1"
     showgrid="false"
     inkscape:snap-bbox="true"
     inkscape:object-nodes="false"
     inkscape:snap-grids="true"
     inkscape:snap-to-guides="true"
     inkscape:snap-nodes="false"
     inkscape:window-width="1920"
     inkscape:window-height="1032"
     inkscape:window-x="0"
     inkscape:window-y="0"
     inkscape:window-maximized="1" />
  <metadata
     id="metadata7">
    <rdf:RDF>
      <cc:Work
         rdf:about="">
        <dc:format>image/svg+xml</dc:format>
        <dc:type
           rdf:resource="http://purl.org/dc/dcmitype/StillImage" />
        <dc:title />
      </cc:Work>
    </rdf:RDF>
  </metadata>
  <g
     inkscape:label="Layer 1"
     inkscape:groupmode="layer"
     id="layer1">
    <rect
       style="fill:#ffb380;fill-rule:evenodd;stroke:#000000;stroke-width:0.85621971px;stroke-linecap:butt;stroke-linejoin:miter;stroke-opacity:1"
       id="rect3350"
       width="56.929504"
       height="40.143768"
       x="90.321442"
       y="60.370037"
       ry="19.948614" />
    <g
       style=""
       transform="translate(123.21429,-10.714286)"
       id="g5942">
      <path
         style="fill:#ffb380;stroke:#000000;stroke-width:0.46170175;stroke-miterlimit:4;stroke-dasharray:none;stroke-opacity:1"
         d="m 25.69719,109.15976 0.944168,0 c 6.616509,0 12.412093,5.34329 11.943157,11.94316 l -2.146574,30.21116 c -0.468937,6.59987 -3.180074,12.19569 -9.796583,12.19569 l -0.944168,0 c -6.616508,0 -11.943156,-5.32664 -11.943156,-11.94315 l 0,-30.4637 c 0,-6.61651 5.326648,-11.94316 11.943156,-11.94316 z"
         id="rect5944"
         inkscape:connector-curvature="0"
         sodipodi:nodetypes="sssssssss" />
      <path
         style="fill:#ffb380;stroke:#000000;stroke-width:0.48481548;stroke-miterlimit:4;stroke-dasharray:none;stroke-opacity:1"
         d="m 34.840231,151.12315 28.887237,1.38896 c 6.688446,0.32159 11.32934,2.16712 11.32934,6.58432 0,4.41719 -5.390781,7.97327 -12.086954,7.97327 l -28.129623,0 c -6.696173,0 -12.086954,-3.55608 -12.086954,-7.97327 0,-4.4172 5.398508,-8.29487 12.086954,-7.97328 z"
         id="rect5946"
         inkscape:connector-curvature="0"
         sodipodi:nodetypes="sssssss" />
      <g
         id="g5948"
         transform="translate(58.035716,13.214286)">
        <rect
           ry="5.7764301"
           rx="9.1864796"
           y="134.89116"
           x="11.111678"
           height="20.708128"
           width="15.152288"
           id="rect5950"
           style="fill:#ffb380;stroke:#000000;stroke-width:0.30000001;stroke-linejoin:miter;stroke-miterlimit:3.9000001;stroke-dasharray:none;stroke-opacity:1" />
        <rect
           ry="1.232407"
           rx="4.3168859"
           y="137.84103"
           x="17.47081"
           height="3.7171984"
           width="9.394783"
           id="rect5952"
           style="opacity:1;fill:#ffb380;stroke:#000000;stroke-width:0.49135065;stroke-miterlimit:4;stroke-dasharray:none;stroke-opacity:1" />
        <rect
           style="opacity:1;fill:#ffb380;stroke:#000000;stroke-width:0.50620174;stroke-miterlimit:4;stroke-dasharray:none;stroke-opacity:1"
           id="rect5954"
           width="10.011277"
           height="3.7023473"
           x="17.225697"
           y="141.88905"
           rx="4.6001639"
           ry="1.2274833" />
        <rect
           ry="1.2294321"
           rx="4.486824"
           y="145.80046"
           x="17.349028"
           height="3.7082255"
           width="9.764617"
           id="rect5956"
           style="opacity:1;fill:#ffb380;stroke:#000000;stroke-width:0.50032359;stroke-miterlimit:4;stroke-dasharray:none;stroke-opacity:1" />
        <rect
           style="opacity:1;fill:#ffb380;stroke:#000000;stroke-width:0.50327277;stroke-miterlimit:4;stroke-dasharray:none;stroke-opacity:1"
           id="rect5958"
           width="9.8879366"
           height="3.7052763"
           x="17.224234"
           y="149.71626"
           rx="4.5434895"
           ry="1.2284544" />
      </g>
    </g>
    <path
       style="fill:#241c1c"
       d="M 106.82191,54.727657 122.179,53.299086 c 7.28926,-0.678074 23.57145,3.658573 23.57145,6.428576 l 0,5.714284 c 0,2.770002 -5.89358,5.000004 -13.21431,5.000004 l -25.71423,0 c -7.320724,0 -13.214305,-2.230002 -13.214305,-5.000004 l 0,-5.714284 c 0,-2.770003 5.925051,-4.321932 13.214305,-5.000005 z"
       id="rect3404"
       inkscape:connector-curvature="0"
       sodipodi:nodetypes="sssssssss" />
    <path
       transform="matrix(0,1,-1,0,0,0)"
       style="fill:#241c1c"
       d="m 57.227666,-147.00048 c 4.451786,0 8.035714,0.48286 8.035714,2.85715 l 0,13.57143 c 0,2.37428 -3.583928,4.28571 -8.035714,4.28571 -4.451786,0 -3.554949,0.88061 -4.107143,-1.42857 l -3.928571,-16.42857 c -0.552196,-2.30918 3.583928,-2.85715 8.035714,-2.85715 z"
       id="rect3408"
       inkscape:connector-curvature="0"
       sodipodi:nodetypes="sssssss" />
    <rect
       style="fill:#2b0000"
       id="rect3412"
       width="62.128998"
       height="29.171595"
       x="-220.29971"
       y="117.32387"
       rx="9.0187216"
       ry="5.7386684"
       transform="matrix(0.15724091,-0.98756027,0.99612822,0.08791232,0,0)" />
    <rect
       style="fill:#2b0000"
       id="rect3412-3"
       width="63.284668"
       height="29.363548"
       x="-238.15659"
       y="-116.01622"
       rx="9.1864786"
       ry="5.7764301"
       transform="matrix(-0.17189909,-0.98511456,-0.99988002,0.01549024,0,0)" />
    <ellipse
       style="fill:#2b0000"
       id="path3450-5"
       cx="124.67905"
       cy="77.852631"
       rx="5"
       ry="4.375" />
    <ellipse
       style="fill:#2b0000"
       id="path3450-5-0"
       cx="139.10715"
       cy="77.897919"
       rx="5"
       ry="4.375" />
    <path
       style="fill:none;fill-rule:evenodd;stroke:#000000;stroke-width:1px;stroke-linecap:butt;stroke-linejoin:miter;stroke-opacity:1"
       d="m 140,90.397919 -17.67857,-0.357143 0,0 10,2.857143 z"
       id="path3435"
       inkscape:connector-curvature="0" />
    <path
       style="fill:#241c1c"
       d="m 129.64895,91.545394 -2.23214,-0.649967 3.92857,-0.05045 c 5.07153,-0.06513 5.36258,0.0099 3.03572,0.783118 -0.98215,0.326346 -1.94643,0.587488 -2.14286,0.580314 -0.19643,-0.0072 -1.36161,-0.305529 -2.58929,-0.663011 z"
       id="path3439"
       inkscape:connector-curvature="0" />
    <rect
       style="fill:#ffb380;fill-rule:evenodd;stroke:#000000;stroke-width:0.85621971px;stroke-linecap:butt;stroke-linejoin:miter;stroke-opacity:1"
       id="rect3350-7"
       width="56.929504"
       height="40.143768"
       x="332.13623"
       y="60.831871"
       ry="19.948614" />
    <rect
       style="fill:#2b0000"
       id="rect3412-5"
       width="62.128998"
       height="29.171595"
       x="-199.45038"
       y="356.78745"
       rx="9.0187216"
       ry="5.7386684"
       transform="matrix(0.15724091,-0.98756027,0.99612822,0.08791232,0,0)" />
    <rect
       style="fill:#2b0000"
       id="rect3412-3-7"
       width="63.284668"
       height="29.363548"
       x="-242.41669"
       y="-357.12762"
       rx="9.1864786"
       ry="5.7764301"
       transform="matrix(-0.17189909,-0.98511456,-0.99988002,0.01549024,0,0)" />
    <ellipse
       style="fill:#2b0000"
       id="path3450-5-4"
       cx="366.49384"
       cy="78.314461"
       rx="5"
       ry="4.375" />
    <ellipse
       style="fill:#2b0000"
       id="path3450-5-0-4"
       cx="380.92194"
       cy="78.359756"
       rx="5"
       ry="4.375" />
    <path
       style="fill:none;fill-rule:evenodd;stroke:#000000;stroke-width:1px;stroke-linecap:butt;stroke-linejoin:miter;stroke-opacity:1"
       d="m 381.8148,90.859754 -17.67857,-0.35715 0,0 10,2.85715 z"
       id="path3435-3"
       inkscape:connector-curvature="0" />
    <path
       style="fill:#241c1c"
       d="m 371.46375,92.007224 -2.23214,-0.64997 3.92857,-0.0504 c 5.07153,-0.0651 5.36258,0.01 3.03572,0.78312 -0.98215,0.32635 -1.94643,0.58749 -2.14286,0.58032 -0.19643,-0.007 -1.36161,-0.30553 -2.58929,-0.66301 z"
       id="path3439-0"
       inkscape:connector-curvature="0" />
    <rect
       style="fill:#c83737"
       id="rect3362"
       width="72.85714"
       height="57.5"
       x="81.107635"
       y="99.370506"
       ry="13.5714" />
    <rect
       style="fill:#2b0000"
       id="rect3429"
       width="56.07143"
       height="19.285715"
       x="88.964783"
       y="155.44193"
       rx="8.9688902"
       ry="4.2857099" />
    <g
       style=""
       id="g5932"
       transform="translate(55.535714,-9.8214286)">
      <path
         style="fill:#ffb380;stroke:#000000;stroke-width:0.46170175;stroke-miterlimit:4;stroke-dasharray:none;stroke-opacity:1"
         d="m 25.69719,109.15976 0.944168,0 c 6.616509,0 12.57108,5.35651 11.943157,11.94316 l -2.904189,30.4637 c -0.627923,6.58665 -2.422459,11.94315 -9.038968,11.94315 l -0.944168,0 c -6.616508,0 -11.943156,-5.32664 -11.943156,-11.94315 l 0,-30.4637 c 0,-6.61651 5.326648,-11.94316 11.943156,-11.94316 z"
         id="rect3352"
         inkscape:connector-curvature="0"
         sodipodi:nodetypes="sssssssss" />
      <path
         style="fill:#ffb380;stroke:#000000;stroke-width:0.48481548;stroke-miterlimit:4;stroke-dasharray:none;stroke-opacity:1"
         d="m 34.840231,151.12315 29.013506,1.51523 c 6.68706,0.34923 11.203071,2.04085 11.203071,6.45805 0,4.41719 -5.390781,7.97327 -12.086954,7.97327 l -28.129623,0 c -6.696173,0 -12.086954,-3.55608 -12.086954,-7.97327 0,-4.4172 5.399894,-8.32251 12.086954,-7.97328 z"
         id="rect3354"
         inkscape:connector-curvature="0"
         sodipodi:nodetypes="sssssss" />
      <g
         transform="translate(58.035716,13.214286)"
         id="g4346">
        <rect
           style="fill:#ffb380;stroke:#000000;stroke-width:0.30000001;stroke-linejoin:miter;stroke-miterlimit:3.9000001;stroke-dasharray:none;stroke-opacity:1"
           id="rect3530"
           width="15.152288"
           height="20.708128"
           x="11.111678"
           y="134.89116"
           rx="9.1864796"
           ry="5.7764301" />
        <rect
           style="opacity:1;fill:#ffb380;stroke:#000000;stroke-width:0.49135065;stroke-miterlimit:4;stroke-dasharray:none;stroke-opacity:1"
           id="rect4338"
           width="9.394783"
           height="3.7171984"
           x="17.47081"
           y="137.84103"
           rx="4.3168859"
           ry="1.232407" />
        <rect
           ry="1.2274833"
           rx="4.6001639"
           y="141.88905"
           x="17.225697"
           height="3.7023473"
           width="10.011277"
           id="rect4340"
           style="opacity:1;fill:#ffb380;stroke:#000000;stroke-width:0.50620174;stroke-miterlimit:4;stroke-dasharray:none;stroke-opacity:1" />
        <rect
           style="opacity:1;fill:#ffb380;stroke:#000000;stroke-width:0.50032359;stroke-miterlimit:4;stroke-dasharray:none;stroke-opacity:1"
           id="rect4342"
           width="9.764617"
           height="3.7082255"
           x="17.349028"
           y="145.80046"
           rx="4.486824"
           ry="1.2294321" />
        <rect
           ry="1.2284544"
           rx="4.5434895"
           y="149.71626"
           x="17.224234"
           height="3.7052763"
           width="9.8879366"
           id="rect4344"
           style="opacity:1;fill:#ffb380;stroke:#000000;stroke-width:0.50327277;stroke-miterlimit:4;stroke-dasharray:none;stroke-opacity:1" />
      </g>
    </g>
    <g
       style=""
       transform="matrix(0.9810143,-0.19393543,0.19393543,0.9810143,336.49737,-0.28275353)"
       id="g5942-5">
      <path
         style="fill:#ffb380;stroke:#000000;stroke-width:0.46170175;stroke-miterlimit:4;stroke-dasharray:none;stroke-opacity:1"
         d="m 25.69719,109.15976 0.944168,0 c 6.616509,0 12.525739,5.35235 11.943157,11.94316 l -2.662348,30.11941 c -0.582582,6.59081 -2.6643,12.28744 -9.280809,12.28744 l -0.944168,0 c -6.616508,0 -11.943156,-5.32664 -11.943156,-11.94315 l 0,-30.4637 c 0,-6.61651 5.326648,-11.94316 11.943156,-11.94316 z"
         id="rect5944-5"
         inkscape:connector-curvature="0"
         sodipodi:nodetypes="sssssssss" />
      <path
         style="fill:#ffb380;stroke:#000000;stroke-width:0.48481548;stroke-miterlimit:4;stroke-dasharray:none;stroke-opacity:1"
         d="m 34.840231,151.12315 28.486059,2.80087 c 6.664037,0.65524 11.730518,0.75521 11.730518,5.17241 0,4.41719 -5.390781,7.97327 -12.086954,7.97327 l -28.129623,0 c -6.696173,0 -12.086954,-3.55608 -12.086954,-7.97327 0,-4.4172 5.422916,-8.62852 12.086954,-7.97328 z"
         id="rect5946-4"
         inkscape:connector-curvature="0"
         sodipodi:nodetypes="sssssss" />
      <g
         id="g5948-7"
         transform="translate(58.035716,13.214286)">
        <rect
           ry="5.7764301"
           rx="9.1864796"
           y="134.89116"
           x="11.111678"
           height="20.708128"
           width="15.152288"
           id="rect5950-6"
           style="fill:#ffb380;stroke:#000000;stroke-width:0.30000001;stroke-linejoin:miter;stroke-miterlimit:3.9000001;stroke-dasharray:none;stroke-opacity:1" />
        <rect
           ry="1.232407"
           rx="4.3168859"
           y="137.84103"
           x="17.47081"
           height="3.7171984"
           width="9.394783"
           id="rect5952-5"
           style="opacity:1;fill:#ffb380;stroke:#000000;stroke-width:0.49135065;stroke-miterlimit:4;stroke-dasharray:none;stroke-opacity:1" />
        <rect
           style="opacity:1;fill:#ffb380;stroke:#000000;stroke-width:0.50620174;stroke-miterlimit:4;stroke-dasharray:none;stroke-opacity:1"
           id="rect5954-6"
           width="10.011277"
           height="3.7023473"
           x="17.225697"
           y="141.88905"
           rx="4.6001639"
           ry="1.2274833" />
        <rect
           ry="1.2294321"
           rx="4.486824"
           y="145.80046"
           x="17.349028"
           height="3.7082255"
           width="9.764617"
           id="rect5956-9"
           style="opacity:1;fill:#ffb380;stroke:#000000;stroke-width:0.50032359;stroke-miterlimit:4;stroke-dasharray:none;stroke-opacity:1" />
        <rect
           style="opacity:1;fill:#ffb380;stroke:#000000;stroke-width:0.50327277;stroke-miterlimit:4;stroke-dasharray:none;stroke-opacity:1"
           id="rect5958-3"
           width="9.8879366"
           height="3.7052763"
           x="17.224234"
           y="149.71626"
           rx="4.5434895"
           ry="1.2284544" />
      </g>
    </g>
    <rect
       style="fill:#c83737"
       id="rect3362-4"
       width="72.85714"
       height="57.5"
       x="322.92242"
       y="99.832344"
       ry="13.5714" />
    <rect
       style="fill:#2b0000"
       id="rect3429-4"
       width="56.07143"
       height="19.285715"
       x="330.77957"
       y="155.90376"
       rx="8.9688902"
       ry="4.2857099" />
    <g
       style=""
       id="g5932-7"
       transform="matrix(0.96473524,0.2632222,-0.2632222,0.96473524,337.09928,-9.995635)">
      <path
         style="fill:#ffb380;stroke:#000000;stroke-width:0.46170175;stroke-miterlimit:4;stroke-dasharray:none;stroke-opacity:1"
         d="m 25.69719,109.15976 0.944168,0 c 6.616509,0 12.73868,5.37465 11.943157,11.94316 l -3.351917,27.67627 c -0.795523,6.56851 -1.974731,14.73058 -8.59124,14.73058 l -0.944168,0 c -6.616508,0 -11.943156,-5.32664 -11.943156,-11.94315 l 0,-30.4637 c 0,-6.61651 5.326648,-11.94316 11.943156,-11.94316 z"
         id="rect3352-8"
         inkscape:connector-curvature="0"
         sodipodi:nodetypes="sssssssss" />
      <path
         style="fill:#ffb380;stroke:#000000;stroke-width:0.48481548;stroke-miterlimit:4;stroke-dasharray:none;stroke-opacity:1"
         d="m 34.589469,149.52568 28.443131,2.50584 c 6.670336,0.58766 12.024208,2.64771 12.024208,7.06491 0,4.41719 -5.390781,7.97327 -12.086954,7.97327 l -28.129623,0 c -6.696173,0 -12.086954,-3.55608 -12.086954,-7.97327 0,-4.4172 5.165856,-10.15841 11.836192,-9.57075 z"
         id="rect3354-6"
         inkscape:connector-curvature="0"
         sodipodi:nodetypes="sssssss" />
      <g
         transform="translate(58.035716,13.214286)"
         id="g4346-8">
        <path
           style="fill:#ffb380;stroke:#000000;stroke-width:0.30000001;stroke-linejoin:miter;stroke-miterlimit:3.9000001;stroke-dasharray:none;stroke-opacity:1"
           d="m 18.687822,134.89116 c 4.197184,0 7.576145,2.57629 7.576145,5.77643 l 0,9.15527 c 0,3.20014 -3.378961,5.77643 -7.576145,5.77643 -4.197184,0 -7.576144,-2.57629 -7.576144,-5.77643 l 0,-9.15527 c 0,-3.20014 3.37896,-5.77643 7.576144,-5.77643 z"
           id="rect3530-8" />
        <path
           style="opacity:1;fill:#ffb380;stroke:#000000;stroke-width:0.49135065;stroke-miterlimit:4;stroke-dasharray:none;stroke-opacity:1"
           d="m 21.787696,137.84103 0.761011,0 c 2.391555,0 4.316886,0.54966 4.316886,1.23241 l 0,1.25239 c 0,0.68275 -1.925331,1.2324 -4.316886,1.2324 l -0.761011,0 c -2.391555,0 -4.316886,-0.54965 -4.316886,-1.2324 l 0,-1.25239 c 0,-0.68275 1.925331,-1.23241 4.316886,-1.23241 z"
           id="rect4338-4" />
        <path
           style="opacity:1;fill:#ffb380;stroke:#000000;stroke-width:0.50620174;stroke-miterlimit:4;stroke-dasharray:none;stroke-opacity:1"
           d="m 21.825861,141.88905 0.810949,0 c 2.548491,0 4.600164,0.54746 4.600164,1.22749 l 0,1.24738 c 0,0.68002 -2.051673,1.22748 -4.600164,1.22748 l -0.810949,0 c -2.548491,0 -4.600164,-0.54746 -4.600164,-1.22748 l 0,-1.24738 c 0,-0.68003 2.051673,-1.22749 4.600164,-1.22749 z"
           id="rect4340-3" />
        <path
           style="opacity:1;fill:#ffb380;stroke:#000000;stroke-width:0.50032359;stroke-miterlimit:4;stroke-dasharray:none;stroke-opacity:1"
           d="m 21.835852,145.80046 0.790969,0 c 2.4857,0 4.486824,0.54833 4.486824,1.22943 l 0,1.24936 c 0,0.68111 -2.001124,1.22944 -4.486824,1.22944 l -0.790969,0 c -2.485701,0 -4.486824,-0.54833 -4.486824,-1.22944 l 0,-1.24936 c 0,-0.6811 2.001123,-1.22943 4.486824,-1.22943 z"
           id="rect4342-1" />
        <path
           style="opacity:1;fill:#ffb380;stroke:#000000;stroke-width:0.50327277;stroke-miterlimit:4;stroke-dasharray:none;stroke-opacity:1"
           d="m 21.767723,149.71626 0.800958,0 c 2.517093,0 4.543489,0.54789 4.543489,1.22846 l 0,1.24836 c 0,0.68057 -2.026396,1.22846 -4.543489,1.22846 l -0.800958,0 c -2.517093,0 -4.543489,-0.54789 -4.543489,-1.22846 l 0,-1.24836 c 0,-0.68057 2.026396,-1.22846 4.543489,-1.22846 z"
           id="rect4344-4" />
      </g>
    </g>
    <g
       id="g6610"
       transform="translate(98.994949,-10.101525)">
      <path
         sodipodi:nodetypes="sssssssss"
         inkscape:connector-curvature="0"
         id="rect3404-50"
         d="m 248.66072,63.904908 15.35709,-1.428571 c 7.28926,-0.678074 23.57145,3.658573 23.57145,6.428577 l 0,5.714284 c 0,2.770002 -5.89358,5.000004 -13.21431,5.000004 l -25.71423,0 c -7.32072,0 -13.2143,-2.230002 -13.2143,-5.000004 l 0,-5.714284 c 0,-2.770004 5.92505,-4.321933 13.2143,-5.000006 z"
         style="fill:#241c1c" />
      <path
         sodipodi:nodetypes="sssssss"
         inkscape:connector-curvature="0"
         id="rect3408-9"
         d="m 288.83929,66.404917 c 0,4.451787 -0.48286,8.035715 -2.85715,8.035715 l -13.57143,0 c -2.37428,0 -4.28571,-3.583928 -4.28571,-8.035715 0,-4.451786 -0.88061,-3.554949 1.42857,-4.107143 l 16.42857,-3.928571 c 2.30918,-0.552196 2.85715,3.583928 2.85715,8.035714 z"
         style="fill:#241c1c" />
    </g>
  </g>
</svg>
